Estimating chocolate ratings using a Bayesian approach
…
data <- tidytuesdayR::tt_load(2022, week = 3)
chocolate <- data$chocolate

We can see that the chocolate data set organizes our chocolate data by company location, manufacturer, the origin of beans, some additional specific on the name of the product, and some memorable details.

What we want to know are the ratings of each of the chocolate products organized by some over-arching variable. In this case I’m interested in seeing the average rating of each origin location where the company was from. In other words, where do we find the best company that makes the tastiest chocolate!

chocolate %>% group_by(company_location) %>% summarise(n = n(), rating = mean(rating)) %>% paged_table()

Even though there are a lot of locations, let’s filter out locations without a lot of companies. We also want to calculate the sample mean and standard error, to plot our overall distribution of scores.

chocolate %>% group_by(company_location) %>% summarise(n = n()) %>% filter(n >= 10)

# A tibble: 31 x 2
   company_location       n
   <chr>              <int>
 1 Amsterdam             12
 2 Australia             53
 3 Austria               30
 4 Belgium               63
 5 Brazil                25
 6 Canada               177
 7 Colombia              29
 8 Denmark               31
 9 Dominican Republic    11
10 Ecuador               58
# ... with 21 more rows
…
